{"data":[{"id":145244,"attributes":{"title":"003 ROLIZ  фиолет","description":"Нет описания","createdAt":"2024-03-07T03:51:41.167Z","updatedAt":"2024-05-24T12:04:40.355Z","id1c":"591eb102-e455-11e6-80f9-bcee7b8bc990","stock":1,"storeplace":"Нет склада","quantitySales":"0","price":"0","Attributes":null,"priceOpt":"","imgs":{"data":null},"categories":{"data":[{"id":61,"attributes":{"name":"ROLIZ","description":null,"quantityProducts":null,"pages":null,"createdAt":"2024-02-07T03:03:43.503Z","updatedAt":"2024-02-07T03:03:43.503Z","id1c":"b49b9534-9b1c-11e6-80f9-bcee7b8bc990"}},{"id":59,"attributes":{"name":"Велосипеды","description":null,"quantityProducts":null,"pages":null,"createdAt":"2024-02-07T03:03:43.405Z","updatedAt":"2024-05-14T15:56:53.607Z","id1c":"4ecc536e-941f-11e6-80f9-bcee7b8bc990"}}]},"Orders":{"data":[]},"otzyvy_tovaries":{"data":[]},"voprosy_po_tovarams":{"data":[]}}},{"id":145460,"attributes":{"title":"023 ROLIZ","description":"Нет описания","createdAt":"2024-03-07T03:51:57.297Z","updatedAt":"2024-03-25T23:47:58.305Z","id1c":"d20e3198-314b-11e8-8104-bcee7b8bc990","stock":1,"storeplace":"Нет склада","quantitySales":"0","price":"0","Attributes":null,"priceOpt":"","imgs":{"data":null},"categories":{"data":[{"id":61,"attributes":{"name":"ROLIZ","description":null,"quantityProducts":null,"pages":null,"createdAt":"2024-02-07T03:03:43.503Z","updatedAt":"2024-02-07T03:03:43.503Z","id1c":"b49b9534-9b1c-11e6-80f9-bcee7b8bc990"}},{"id":59,"attributes":{"name":"Велосипеды","description":null,"quantityProducts":null,"pages":null,"createdAt":"2024-02-07T03:03:43.405Z","updatedAt":"2024-05-14T15:56:53.607Z","id1c":"4ecc536e-941f-11e6-80f9-bcee7b8bc990"}}]},"Orders":{"data":[]},"otzyvy_tovaries":{"data":[]},"voprosy_po_tovarams":{"data":[]}}},{"id":146026,"attributes":{"title":"088 ROLIZ   красный (уценка)","description":"Нет описания","createdAt":"2024-03-07T03:52:34.599Z","updatedAt":"2024-03-25T23:48:25.253Z","id1c":"70f0a0e8-a917-11ea-8119-bcee7b8bc990","stock":1,"storeplace":"Нет склада","quantitySales":"0","price":"0","Attributes":null,"priceOpt":"","imgs":{"data":null},"categories":{"data":[{"id":61,"attributes":{"name":"ROLIZ","description":null,"quantityProducts":null,"pages":null,"createdAt":"2024-02-07T03:03:43.503Z","updatedAt":"2024-02-07T03:03:43.503Z","id1c":"b49b9534-9b1c-11e6-80f9-bcee7b8bc990"}},{"id":59,"attributes":{"name":"Велосипеды","description":null,"quantityProducts":null,"pages":null,"createdAt":"2024-02-07T03:03:43.405Z","updatedAt":"2024-05-14T15:56:53.607Z","id1c":"4ecc536e-941f-11e6-80f9-bcee7b8bc990"}}]},"Orders":{"data":[]},"otzyvy_tovaries":{"data":[]},"voprosy_po_tovarams":{"data":[]}}},{"id":144909,"attributes":{"title":"12-301 ROLIZ алый","description":"Нет описания","createdAt":"2024-03-07T03:51:23.115Z","updatedAt":"2024-03-25T23:47:33.546Z","id1c":"9c8cfe67-8239-11ec-8121-bcee7b8bc990","stock":2,"storeplace":"Нет склада","quantitySales":"0","price":"0","Attributes":null,"priceOpt":"","imgs":{"data":null},"categories":{"data":[{"id":61,"attributes":{"name":"ROLIZ","description":null,"quantityProducts":null,"pages":null,"createdAt":"2024-02-07T03:03:43.503Z","updatedAt":"2024-02-07T03:03:43.503Z","id1c":"b49b9534-9b1c-11e6-80f9-bcee7b8bc990"}},{"id":59,"attributes":{"name":"Велосипеды","description":null,"quantityProducts":null,"pages":null,"createdAt":"2024-02-07T03:03:43.405Z","updatedAt":"2024-05-14T15:56:53.607Z","id1c":"4ecc536e-941f-11e6-80f9-bcee7b8bc990"}}]},"Orders":{"data":[]},"otzyvy_tovaries":{"data":[]},"voprosy_po_tovarams":{"data":[]}}},{"id":145017,"attributes":{"title":"12-301 ROLIZ синий","description":"Нет описания","createdAt":"2024-03-07T03:51:28.552Z","updatedAt":"2024-03-25T23:47:38.320Z","id1c":"23ce6c6a-fa5a-11e7-8102-bcee7b8bc990","stock":1,"storeplace":"Нет склада","quantitySales":"0","price":"0","Attributes":null,"priceOpt":"","imgs":{"data":null},"categories":{"data":[{"id":61,"attributes":{"name":"ROLIZ","description":null,"quantityProducts":null,"pages":null,"createdAt":"2024-02-07T03:03:43.503Z","updatedAt":"2024-02-07T03:03:43.503Z","id1c":"b49b9534-9b1c-11e6-80f9-bcee7b8bc990"}},{"id":59,"attributes":{"name":"Велосипеды","description":null,"quantityProducts":null,"pages":null,"createdAt":"2024-02-07T03:03:43.405Z","updatedAt":"2024-05-14T15:56:53.607Z","id1c":"4ecc536e-941f-11e6-80f9-bcee7b8bc990"}}]},"Orders":{"data":[]},"otzyvy_tovaries":{"data":[]},"voprosy_po_tovarams":{"data":[]}}},{"id":145813,"attributes":{"title":"12-320 ROLIZ оранжевый (2шт в кор)","description":"Нет описания","createdAt":"2024-03-07T03:52:22.185Z","updatedAt":"2024-03-25T23:48:16.165Z","id1c":"fb8b4882-b31c-11eb-8120-bcee7b8bc990","stock":2,"storeplace":"Нет склада","quantitySales":"0","price":"0","Attributes":null,"priceOpt":"","imgs":{"data":null},"categories":{"data":[{"id":61,"attributes":{"name":"ROLIZ","description":null,"quantityProducts":null,"pages":null,"createdAt":"2024-02-07T03:03:43.503Z","updatedAt":"2024-02-07T03:03:43.503Z","id1c":"b49b9534-9b1c-11e6-80f9-bcee7b8bc990"}},{"id":59,"attributes":{"name":"Велосипеды","description":null,"quantityProducts":null,"pages":null,"createdAt":"2024-02-07T03:03:43.405Z","updatedAt":"2024-05-14T15:56:53.607Z","id1c":"4ecc536e-941f-11e6-80f9-bcee7b8bc990"}}]},"Orders":{"data":[]},"otzyvy_tovaries":{"data":[]},"voprosy_po_tovarams":{"data":[]}}},{"id":146117,"attributes":{"title":"14-320 ROLIZ желтый (2шт в кор)","description":"Нет описания","createdAt":"2024-03-07T03:55:48.188Z","updatedAt":"2024-03-25T23:48:30.980Z","id1c":"a55849e3-a003-11eb-8120-bcee7b8bc990","stock":1,"storeplace":"Нет склада","quantitySales":"0","price":"0","Attributes":null,"priceOpt":"","imgs":{"data":null},"categories":{"data":[{"id":61,"attributes":{"name":"ROLIZ","description":null,"quantityProducts":null,"pages":null,"createdAt":"2024-02-07T03:03:43.503Z","updatedAt":"2024-02-07T03:03:43.503Z","id1c":"b49b9534-9b1c-11e6-80f9-bcee7b8bc990"}},{"id":59,"attributes":{"name":"Велосипеды","description":null,"quantityProducts":null,"pages":null,"createdAt":"2024-02-07T03:03:43.405Z","updatedAt":"2024-05-14T15:56:53.607Z","id1c":"4ecc536e-941f-11e6-80f9-bcee7b8bc990"}}]},"Orders":{"data":[]},"otzyvy_tovaries":{"data":[]},"voprosy_po_tovarams":{"data":[]}}},{"id":144532,"attributes":{"title":"16-301 ROLIZ желтый","description":"Нет описания","createdAt":"2024-03-07T03:51:00.318Z","updatedAt":"2024-03-25T23:47:17.065Z","id1c":"bc09ba23-32dd-11e8-8104-bcee7b8bc990","stock":3,"storeplace":"Нет склада","quantitySales":"0","price":"0","Attributes":null,"priceOpt":"","imgs":{"data":null},"categories":{"data":[{"id":61,"attributes":{"name":"ROLIZ","description":null,"quantityProducts":null,"pages":null,"createdAt":"2024-02-07T03:03:43.503Z","updatedAt":"2024-02-07T03:03:43.503Z","id1c":"b49b9534-9b1c-11e6-80f9-bcee7b8bc990"}},{"id":59,"attributes":{"name":"Велосипеды","description":null,"quantityProducts":null,"pages":null,"createdAt":"2024-02-07T03:03:43.405Z","updatedAt":"2024-05-14T15:56:53.607Z","id1c":"4ecc536e-941f-11e6-80f9-bcee7b8bc990"}}]},"Orders":{"data":[]},"otzyvy_tovaries":{"data":[]},"voprosy_po_tovarams":{"data":[]}}},{"id":144235,"attributes":{"title":"16-301 ROLIZ зеленый","description":"Нет описания","createdAt":"2024-03-07T03:50:43.174Z","updatedAt":"2024-05-24T12:04:39.529Z","id1c":"64d096ad-9b49-11e6-80f9-bcee7b8bc990","stock":1,"storeplace":"Нет склада","quantitySales":"0","price":"0","Attributes":null,"priceOpt":"","imgs":{"data":null},"categories":{"data":[{"id":61,"attributes":{"name":"ROLIZ","description":null,"quantityProducts":null,"pages":null,"createdAt":"2024-02-07T03:03:43.503Z","updatedAt":"2024-02-07T03:03:43.503Z","id1c":"b49b9534-9b1c-11e6-80f9-bcee7b8bc990"}},{"id":59,"attributes":{"name":"Велосипеды","description":null,"quantityProducts":null,"pages":null,"createdAt":"2024-02-07T03:03:43.405Z","updatedAt":"2024-05-14T15:56:53.607Z","id1c":"4ecc536e-941f-11e6-80f9-bcee7b8bc990"}}]},"Orders":{"data":[]},"otzyvy_tovaries":{"data":[]},"voprosy_po_tovarams":{"data":[]}}},{"id":145144,"attributes":{"title":"16-301 ROLIZ розовый","description":"Нет описания","createdAt":"2024-03-07T03:51:34.687Z","updatedAt":"2024-05-24T12:04:39.688Z","id1c":"ffe3a864-bcf6-11e6-80f9-bcee7b8bc990","stock":28,"storeplace":"Нет склада","quantitySales":"0","price":"0","Attributes":null,"priceOpt":"","imgs":{"data":null},"categories":{"data":[{"id":61,"attributes":{"name":"ROLIZ","description":null,"quantityProducts":null,"pages":null,"createdAt":"2024-02-07T03:03:43.503Z","updatedAt":"2024-02-07T03:03:43.503Z","id1c":"b49b9534-9b1c-11e6-80f9-bcee7b8bc990"}},{"id":59,"attributes":{"name":"Велосипеды","description":null,"quantityProducts":null,"pages":null,"createdAt":"2024-02-07T03:03:43.405Z","updatedAt":"2024-05-14T15:56:53.607Z","id1c":"4ecc536e-941f-11e6-80f9-bcee7b8bc990"}}]},"Orders":{"data":[]},"otzyvy_tovaries":{"data":[]},"voprosy_po_tovarams":{"data":[]}}},{"id":145469,"attributes":{"title":"16-301 ROLIZ синий","description":"Нет описания","createdAt":"2024-03-07T03:51:58.526Z","updatedAt":"2024-03-25T23:47:59.148Z","id1c":"23ce6c6b-fa5a-11e7-8102-bcee7b8bc990","stock":9,"storeplace":"Нет склада","quantitySales":"0","price":"0","Attributes":null,"priceOpt":"","imgs":{"data":null},"categories":{"data":[{"id":61,"attributes":{"name":"ROLIZ","description":null,"quantityProducts":null,"pages":null,"createdAt":"2024-02-07T03:03:43.503Z","updatedAt":"2024-02-07T03:03:43.503Z","id1c":"b49b9534-9b1c-11e6-80f9-bcee7b8bc990"}},{"id":59,"attributes":{"name":"Велосипеды","description":null,"quantityProducts":null,"pages":null,"createdAt":"2024-02-07T03:03:43.405Z","updatedAt":"2024-05-14T15:56:53.607Z","id1c":"4ecc536e-941f-11e6-80f9-bcee7b8bc990"}}]},"Orders":{"data":[]},"otzyvy_tovaries":{"data":[]},"voprosy_po_tovarams":{"data":[]}}},{"id":144223,"attributes":{"title":"18-301 ROLIZ  розовый","description":"Нет описания","createdAt":"2024-03-07T03:50:42.497Z","updatedAt":"2024-03-25T23:47:01.413Z","id1c":"9575ae47-3210-11e8-8104-bcee7b8bc990","stock":1,"storeplace":"Нет склада","quantitySales":"0","price":"0","Attributes":null,"priceOpt":"","imgs":{"data":null},"categories":{"data":[{"id":61,"attributes":{"name":"ROLIZ","description":null,"quantityProducts":null,"pages":null,"createdAt":"2024-02-07T03:03:43.503Z","updatedAt":"2024-02-07T03:03:43.503Z","id1c":"b49b9534-9b1c-11e6-80f9-bcee7b8bc990"}},{"id":59,"attributes":{"name":"Велосипеды","description":null,"quantityProducts":null,"pages":null,"createdAt":"2024-02-07T03:03:43.405Z","updatedAt":"2024-05-14T15:56:53.607Z","id1c":"4ecc536e-941f-11e6-80f9-bcee7b8bc990"}}]},"Orders":{"data":[]},"otzyvy_tovaries":{"data":[]},"voprosy_po_tovarams":{"data":[]}}},{"id":145979,"attributes":{"title":"20-002 ROLIZ желтый","description":"Нет описания","createdAt":"2024-03-07T03:52:32.173Z","updatedAt":"2024-03-25T23:48:23.499Z","id1c":"4d7ae90e-85c8-11ea-8115-bcee7b8bc990","stock":20,"storeplace":"Нет склада","quantitySales":"0","price":"0","Attributes":null,"priceOpt":"","imgs":{"data":null},"categories":{"data":[{"id":61,"attributes":{"name":"ROLIZ","description":null,"quantityProducts":null,"pages":null,"createdAt":"2024-02-07T03:03:43.503Z","updatedAt":"2024-02-07T03:03:43.503Z","id1c":"b49b9534-9b1c-11e6-80f9-bcee7b8bc990"}},{"id":59,"attributes":{"name":"Велосипеды","description":null,"quantityProducts":null,"pages":null,"createdAt":"2024-02-07T03:03:43.405Z","updatedAt":"2024-05-14T15:56:53.607Z","id1c":"4ecc536e-941f-11e6-80f9-bcee7b8bc990"}}]},"Orders":{"data":[]},"otzyvy_tovaries":{"data":[]},"voprosy_po_tovarams":{"data":[]}}},{"id":146307,"attributes":{"title":"20-101 ROLIZ UV серебристый","description":"Нет описания","createdAt":"2024-03-07T03:55:58.202Z","updatedAt":"2024-03-25T23:48:42.635Z","id1c":"fe89c8b7-9894-11ec-8122-bcee7b8bc990","stock":17,"storeplace":"Нет склада","quantitySales":"0","price":"0","Attributes":null,"priceOpt":"","imgs":{"data":null},"categories":{"data":[{"id":61,"attributes":{"name":"ROLIZ","description":null,"quantityProducts":null,"pages":null,"createdAt":"2024-02-07T03:03:43.503Z","updatedAt":"2024-02-07T03:03:43.503Z","id1c":"b49b9534-9b1c-11e6-80f9-bcee7b8bc990"}},{"id":59,"attributes":{"name":"Велосипеды","description":null,"quantityProducts":null,"pages":null,"createdAt":"2024-02-07T03:03:43.405Z","updatedAt":"2024-05-14T15:56:53.607Z","id1c":"4ecc536e-941f-11e6-80f9-bcee7b8bc990"}}]},"Orders":{"data":[]},"otzyvy_tovaries":{"data":[]},"voprosy_po_tovarams":{"data":[]}}},{"id":146306,"attributes":{"title":"20-101 ROLIZ синий 9429","description":"Нет описания","createdAt":"2024-03-07T03:55:58.166Z","updatedAt":"2024-03-25T23:48:42.609Z","id1c":"fe89c8b6-9894-11ec-8122-bcee7b8bc990","stock":1,"storeplace":"Нет склада","quantitySales":"0","price":"0","Attributes":null,"priceOpt":"","imgs":{"data":null},"categories":{"data":[{"id":61,"attributes":{"name":"ROLIZ","description":null,"quantityProducts":null,"pages":null,"createdAt":"2024-02-07T03:03:43.503Z","updatedAt":"2024-02-07T03:03:43.503Z","id1c":"b49b9534-9b1c-11e6-80f9-bcee7b8bc990"}},{"id":59,"attributes":{"name":"Велосипеды","description":null,"quantityProducts":null,"pages":null,"createdAt":"2024-02-07T03:03:43.405Z","updatedAt":"2024-05-14T15:56:53.607Z","id1c":"4ecc536e-941f-11e6-80f9-bcee7b8bc990"}}]},"Orders":{"data":[]},"otzyvy_tovaries":{"data":[]},"voprosy_po_tovarams":{"data":[]}}},{"id":143873,"attributes":{"title":"20-102 ROLIZ черн-желтый 728","description":"Нет описания","createdAt":"2024-03-07T03:50:25.020Z","updatedAt":"2024-03-25T23:46:44.776Z","id1c":"69977446-fd84-11e7-8102-bcee7b8bc990","stock":1,"storeplace":"Нет склада","quantitySales":"0","price":"0","Attributes":null,"priceOpt":"","imgs":{"data":null},"categories":{"data":[{"id":61,"attributes":{"name":"ROLIZ","description":null,"quantityProducts":null,"pages":null,"createdAt":"2024-02-07T03:03:43.503Z","updatedAt":"2024-02-07T03:03:43.503Z","id1c":"b49b9534-9b1c-11e6-80f9-bcee7b8bc990"}},{"id":59,"attributes":{"name":"Велосипеды","description":null,"quantityProducts":null,"pages":null,"createdAt":"2024-02-07T03:03:43.405Z","updatedAt":"2024-05-14T15:56:53.607Z","id1c":"4ecc536e-941f-11e6-80f9-bcee7b8bc990"}}]},"Orders":{"data":[]},"otzyvy_tovaries":{"data":[]},"voprosy_po_tovarams":{"data":[]}}},{"id":145786,"attributes":{"title":"20-103 ROLIZ желтый","description":"Нет описания","createdAt":"2024-03-07T03:52:20.625Z","updatedAt":"2024-03-25T23:48:15.184Z","id1c":"0afea7b9-3a32-11e9-810e-bcee7b8bc990","stock":1,"storeplace":"Нет склада","quantitySales":"0","price":"0","Attributes":null,"priceOpt":"","imgs":{"data":null},"categories":{"data":[{"id":61,"attributes":{"name":"ROLIZ","description":null,"quantityProducts":null,"pages":null,"createdAt":"2024-02-07T03:03:43.503Z","updatedAt":"2024-02-07T03:03:43.503Z","id1c":"b49b9534-9b1c-11e6-80f9-bcee7b8bc990"}},{"id":59,"attributes":{"name":"Велосипеды","description":null,"quantityProducts":null,"pages":null,"createdAt":"2024-02-07T03:03:43.405Z","updatedAt":"2024-05-14T15:56:53.607Z","id1c":"4ecc536e-941f-11e6-80f9-bcee7b8bc990"}}]},"Orders":{"data":[]},"otzyvy_tovaries":{"data":[]},"voprosy_po_tovarams":{"data":[]}}},{"id":144871,"attributes":{"title":"20-109 ROLIZ зеленый 2410","description":"Нет описания","createdAt":"2024-03-07T03:51:21.398Z","updatedAt":"2024-03-25T23:47:32.098Z","id1c":"fe89c8ba-9894-11ec-8122-bcee7b8bc990","stock":20,"storeplace":"Нет склада","quantitySales":"0","price":"0","Attributes":null,"priceOpt":"","imgs":{"data":null},"categories":{"data":[{"id":61,"attributes":{"name":"ROLIZ","description":null,"quantityProducts":null,"pages":null,"createdAt":"2024-02-07T03:03:43.503Z","updatedAt":"2024-02-07T03:03:43.503Z","id1c":"b49b9534-9b1c-11e6-80f9-bcee7b8bc990"}},{"id":59,"attributes":{"name":"Велосипеды","description":null,"quantityProducts":null,"pages":null,"createdAt":"2024-02-07T03:03:43.405Z","updatedAt":"2024-05-14T15:56:53.607Z","id1c":"4ecc536e-941f-11e6-80f9-bcee7b8bc990"}}]},"Orders":{"data":[]},"otzyvy_tovaries":{"data":[]},"voprosy_po_tovarams":{"data":[]}}},{"id":145241,"attributes":{"title":"20-109 ROLIZ зеленый мат. 2309-2","description":"Нет описания","createdAt":"2024-03-07T03:51:41.085Z","updatedAt":"2024-03-25T23:47:47.790Z","id1c":"fe89c8b8-9894-11ec-8122-bcee7b8bc990","stock":15,"storeplace":"Нет склада","quantitySales":"0","price":"0","Attributes":null,"priceOpt":"","imgs":{"data":null},"categories":{"data":[{"id":61,"attributes":{"name":"ROLIZ","description":null,"quantityProducts":null,"pages":null,"createdAt":"2024-02-07T03:03:43.503Z","updatedAt":"2024-02-07T03:03:43.503Z","id1c":"b49b9534-9b1c-11e6-80f9-bcee7b8bc990"}},{"id":59,"attributes":{"name":"Велосипеды","description":null,"quantityProducts":null,"pages":null,"createdAt":"2024-02-07T03:03:43.405Z","updatedAt":"2024-05-14T15:56:53.607Z","id1c":"4ecc536e-941f-11e6-80f9-bcee7b8bc990"}}]},"Orders":{"data":[]},"otzyvy_tovaries":{"data":[]},"voprosy_po_tovarams":{"data":[]}}},{"id":145843,"attributes":{"title":"20-109 ROLIZ красный 2223","description":"Нет описания","createdAt":"2024-03-07T03:52:23.099Z","updatedAt":"2024-03-25T23:48:16.990Z","id1c":"1812cd69-75f4-11e9-8111-bcee7b8bc990","stock":15,"storeplace":"Нет склада","quantitySales":"0","price":"0","Attributes":null,"priceOpt":"","imgs":{"data":null},"categories":{"data":[{"id":61,"attributes":{"name":"ROLIZ","description":null,"quantityProducts":null,"pages":null,"createdAt":"2024-02-07T03:03:43.503Z","updatedAt":"2024-02-07T03:03:43.503Z","id1c":"b49b9534-9b1c-11e6-80f9-bcee7b8bc990"}},{"id":59,"attributes":{"name":"Велосипеды","description":null,"quantityProducts":null,"pages":null,"createdAt":"2024-02-07T03:03:43.405Z","updatedAt":"2024-05-14T15:56:53.607Z","id1c":"4ecc536e-941f-11e6-80f9-bcee7b8bc990"}}]},"Orders":{"data":[]},"otzyvy_tovaries":{"data":[]},"voprosy_po_tovarams":{"data":[]}}},{"id":145673,"attributes":{"title":"20-109 ROLIZ черный 727","description":"Нет описания","createdAt":"2024-03-07T03:52:11.220Z","updatedAt":"2024-03-25T23:48:09.489Z","id1c":"fe89c8b9-9894-11ec-8122-bcee7b8bc990","stock":24,"storeplace":"Нет склада","quantitySales":"0","price":"0","Attributes":null,"priceOpt":"","imgs":{"data":null},"categories":{"data":[{"id":61,"attributes":{"name":"ROLIZ","description":null,"quantityProducts":null,"pages":null,"createdAt":"2024-02-07T03:03:43.503Z","updatedAt":"2024-02-07T03:03:43.503Z","id1c":"b49b9534-9b1c-11e6-80f9-bcee7b8bc990"}},{"id":59,"attributes":{"name":"Велосипеды","description":null,"quantityProducts":null,"pages":null,"createdAt":"2024-02-07T03:03:43.405Z","updatedAt":"2024-05-14T15:56:53.607Z","id1c":"4ecc536e-941f-11e6-80f9-bcee7b8bc990"}}]},"Orders":{"data":[]},"otzyvy_tovaries":{"data":[]},"voprosy_po_tovarams":{"data":[]}}},{"id":145802,"attributes":{"title":"20-110 ROLIZ черн-зеленый","description":"Нет описания","createdAt":"2024-03-07T03:52:21.857Z","updatedAt":"2024-03-25T23:48:15.869Z","id1c":"eb8b0dc1-405e-11e9-8110-bcee7b8bc990","stock":73,"storeplace":"Нет склада","quantitySales":"0","price":"0","Attributes":null,"priceOpt":"","imgs":{"data":null},"categories":{"data":[{"id":61,"attributes":{"name":"ROLIZ","description":null,"quantityProducts":null,"pages":null,"createdAt":"2024-02-07T03:03:43.503Z","updatedAt":"2024-02-07T03:03:43.503Z","id1c":"b49b9534-9b1c-11e6-80f9-bcee7b8bc990"}},{"id":59,"attributes":{"name":"Велосипеды","description":null,"quantityProducts":null,"pages":null,"createdAt":"2024-02-07T03:03:43.405Z","updatedAt":"2024-05-14T15:56:53.607Z","id1c":"4ecc536e-941f-11e6-80f9-bcee7b8bc990"}}]},"Orders":{"data":[]},"otzyvy_tovaries":{"data":[]},"voprosy_po_tovarams":{"data":[]}}},{"id":144410,"attributes":{"title":"20-111 ROLIZ зеленый 2410","description":"Нет описания","createdAt":"2024-03-07T03:50:52.798Z","updatedAt":"2024-03-25T23:47:11.625Z","id1c":"fe89c8be-9894-11ec-8122-bcee7b8bc990","stock":15,"storeplace":"Нет склада","quantitySales":"0","price":"0","Attributes":null,"priceOpt":"","imgs":{"data":null},"categories":{"data":[{"id":61,"attributes":{"name":"ROLIZ","description":null,"quantityProducts":null,"pages":null,"createdAt":"2024-02-07T03:03:43.503Z","updatedAt":"2024-02-07T03:03:43.503Z","id1c":"b49b9534-9b1c-11e6-80f9-bcee7b8bc990"}},{"id":59,"attributes":{"name":"Велосипеды","description":null,"quantityProducts":null,"pages":null,"createdAt":"2024-02-07T03:03:43.405Z","updatedAt":"2024-05-14T15:56:53.607Z","id1c":"4ecc536e-941f-11e6-80f9-bcee7b8bc990"}}]},"Orders":{"data":[]},"otzyvy_tovaries":{"data":[]},"voprosy_po_tovarams":{"data":[]}}},{"id":146310,"attributes":{"title":"20-111 ROLIZ синий 9429","description":"Нет описания","createdAt":"2024-03-07T03:55:58.289Z","updatedAt":"2024-03-25T23:48:42.719Z","id1c":"fe89c8bd-9894-11ec-8122-bcee7b8bc990","stock":9,"storeplace":"Нет склада","quantitySales":"0","price":"0","Attributes":null,"priceOpt":"","imgs":{"data":null},"categories":{"data":[{"id":61,"attributes":{"name":"ROLIZ","description":null,"quantityProducts":null,"pages":null,"createdAt":"2024-02-07T03:03:43.503Z","updatedAt":"2024-02-07T03:03:43.503Z","id1c":"b49b9534-9b1c-11e6-80f9-bcee7b8bc990"}},{"id":59,"attributes":{"name":"Велосипеды","description":null,"quantityProducts":null,"pages":null,"createdAt":"2024-02-07T03:03:43.405Z","updatedAt":"2024-05-14T15:56:53.607Z","id1c":"4ecc536e-941f-11e6-80f9-bcee7b8bc990"}}]},"Orders":{"data":[]},"otzyvy_tovaries":{"data":[]},"voprosy_po_tovarams":{"data":[]}}},{"id":145318,"attributes":{"title":"20-112 ROLIZ UV синий","description":"Нет описания","createdAt":"2024-03-07T03:51:48.299Z","updatedAt":"2024-03-26T01:09:02.681Z","id1c":"fe89c8c2-9894-11ec-8122-bcee7b8bc990","stock":8,"storeplace":"Нет склада","quantitySales":"0","price":"12800","Attributes":null,"priceOpt":"","imgs":{"data":[{"id":21095,"attributes":{"name":"import_files/fe/fe89c8c2989411ec8122bcee7b8bc990_67cd1eefd73b11ee813c00155d025902.jpg","alternativeText":null,"caption":null,"width":7360,"height":4912,"formats":{"thumbnail":{"name":"thumbnail_import_files/fe/fe89c8c2989411ec8122bcee7b8bc990_67cd1eefd73b11ee813c00155d025902.jpg","hash":"thumbnail_fe89c8c2989411ec8122bcee7b8bc990_67cd1eefd73b11ee813c00155d025902_49b24d07fc","ext":".jpg","mime":"image/jpg","path":null,"width":234,"height":156,"size":7.4,"url":"/uploads/thumbnail_fe89c8c2989411ec8122bcee7b8bc990_67cd1eefd73b11ee813c00155d025902_49b24d07fc.jpg"},"medium":{"name":"medium_import_files/fe/fe89c8c2989411ec8122bcee7b8bc990_67cd1eefd73b11ee813c00155d025902.jpg","hash":"medium_fe89c8c2989411ec8122bcee7b8bc990_67cd1eefd73b11ee813c00155d025902_49b24d07fc","ext":".jpg","mime":"image/jpg","path":null,"width":750,"height":501,"size":47.04,"url":"/uploads/medium_fe89c8c2989411ec8122bcee7b8bc990_67cd1eefd73b11ee813c00155d025902_49b24d07fc.jpg"},"small":{"name":"small_import_files/fe/fe89c8c2989411ec8122bcee7b8bc990_67cd1eefd73b11ee813c00155d025902.jpg","hash":"small_fe89c8c2989411ec8122bcee7b8bc990_67cd1eefd73b11ee813c00155d025902_49b24d07fc","ext":".jpg","mime":"image/jpg","path":null,"width":500,"height":334,"size":24.98,"url":"/uploads/small_fe89c8c2989411ec8122bcee7b8bc990_67cd1eefd73b11ee813c00155d025902_49b24d07fc.jpg"},"large":{"name":"large_import_files/fe/fe89c8c2989411ec8122bcee7b8bc990_67cd1eefd73b11ee813c00155d025902.jpg","hash":"large_fe89c8c2989411ec8122bcee7b8bc990_67cd1eefd73b11ee813c00155d025902_49b24d07fc","ext":".jpg","mime":"image/jpg","path":null,"width":1000,"height":667,"size":75.08,"url":"/uploads/large_fe89c8c2989411ec8122bcee7b8bc990_67cd1eefd73b11ee813c00155d025902_49b24d07fc.jpg"}},"hash":"fe89c8c2989411ec8122bcee7b8bc990_67cd1eefd73b11ee813c00155d025902_49b24d07fc","ext":".jpg","mime":"image/jpg","size":1014.63,"url":"/uploads/fe89c8c2989411ec8122bcee7b8bc990_67cd1eefd73b11ee813c00155d025902_49b24d07fc.jpg","previewUrl":null,"provider":"local","provider_metadata":null,"createdAt":"2024-03-26T01:09:02.655Z","updatedAt":"2024-03-26T01:09:02.655Z"}}]},"categories":{"data":[{"id":61,"attributes":{"name":"ROLIZ","description":null,"quantityProducts":null,"pages":null,"createdAt":"2024-02-07T03:03:43.503Z","updatedAt":"2024-02-07T03:03:43.503Z","id1c":"b49b9534-9b1c-11e6-80f9-bcee7b8bc990"}},{"id":59,"attributes":{"name":"Велосипеды","description":null,"quantityProducts":null,"pages":null,"createdAt":"2024-02-07T03:03:43.405Z","updatedAt":"2024-05-14T15:56:53.607Z","id1c":"4ecc536e-941f-11e6-80f9-bcee7b8bc990"}}]},"Orders":{"data":[]},"otzyvy_tovaries":{"data":[]},"voprosy_po_tovarams":{"data":[]}}}],"meta":{"pagination":{"page":1,"pageSize":25,"pageCount":56,"total":1377}}}